<svg xmlns="http://www.w3.org/2000/svg" viewBox="0 0 291.33 284.42">
  <g>
    <path d="M285.07 271H7.7L146.38 0zm-270.83-4h264.28L146.38 8.79z"/>
    <path d="M42.39 204.29h206.89v4H42.39zM55.73 180.26h180.19v4H55.73z"/>
    <path d="M143.83 8.75h4v172.18h-4zM143.83 207.62h4v61.4h-4zM98.45 94.84h4v88.09h-4zM83.76 124.87h4v58.06h-4zM69.08 152.23h4v30.7h-4zM114.46 64.14h4v118.79h-4zM129.15 34.78h4v148.16h-4z"/>
    <path d="M257.32 222.7H145.83v-15.07h102.14l9.35 15.07zM147.16 236.32h119.46v4H147.16zM291.33 284.42H0l8.01-15.07h275.65l7.67 15.07z"/>
  </g>
</svg>
