<svg xmlns="http://www.w3.org/2000/svg" viewBox="0 0 272.41 324.65">
  <defs>
    <clipPath id="a">
      <path fill="none" d="M136.21 179.41l51.58 110.15H84.62l51.59-110.15z"/>
    </clipPath>
  </defs>
  <g>
    <g class="foo">
      <path d="M272.41 290.82H0L136.21 0zm-269-2.19H269L136.21 5.18z" />
      <path d="M136.21 290.57a1.09 1.09 0 01-1.1-1.09V5a1.1 1.1 0 012.19 0v284.48a1.09 1.09 0 01-1.09 1.09z" />
      <path  d="M52.76 180.13h166.89l-27.22-56.82H78.8l-26.04 56.82z"/>
      <path d="M175 130.79a1.1 1.1 0 01-1-.66l-37.73-86.92-37.83 81.62a1.1 1.1 0 01-2-.92l39.9-86.07L176 129.26a1.1 1.1 0 01-.57 1.44 1.15 1.15 0 01-.43.09z" />
      <g clip-path="url(#a)">
        <path fill="none" d="M143.19 171.37h76.64v76.64h-76.64z"/>
        <path d="M192.92 171.75a.36.36 0 00.08-.38h-.74l-49.07 49.07v1zM179.39 171.75a.36.36 0 00.08-.38h-.73l-35.55 35.55v1zM188.41 171.75a.36.36 0 00.08-.38h-.74l-44.56 44.56v1zM219.83 171.88v-.51h-.52l-76.12 76.12v.52h.51l76.13-76.13zM201.93 171.75a.37.37 0 00.09-.38h-.74l-58.09 58.09v1zM211 171.75a.36.36 0 00.08-.38h-.73l-67.11 67.11v1zM215.46 171.75a.36.36 0 00.08-.38h-.74L143.19 243v1zM206.44 171.75a.39.39 0 00.09-.38h-.74L143.19 234v1zM183.9 171.75a.36.36 0 00.08-.38h-.74l-40.05 40.06v1zM152.34 171.75a.36.36 0 00.08-.38h-.73l-8.5 8.5v1zM147.83 171.75a.36.36 0 00.08-.38h-.73l-4 4v1zM156.85 171.75a.36.36 0 00.08-.38h-.74l-13 13v1zM143.19 171.88l.13-.13a.37.37 0 00.09-.38h-.22zM165.87 171.75a.38.38 0 00.08-.38h-.74l-22 22v1zM170.37 171.75a.37.37 0 00.09-.38h-.74l-26.53 26.53v1zM174.88 171.75a.37.37 0 00.09-.38h-.74l-31 31v1zM161.36 171.75a.36.36 0 00.08-.38h-.74l-17.51 17.51v1zM197.42 171.75a.37.37 0 00.09-.38h-.74L143.19 225v1zM219.83 226v-1l-22.68 22.68a.36.36 0 00-.08.38h.74zM219.83 235v-1l-13.66 13.66a.36.36 0 00-.09.38h.74zM219.83 230.49v-1l-18.17 18.17a.36.36 0 00-.08.38h.73zM219.83 221.48v-1l-27.19 27.19a.36.36 0 00-.08.38h.74zM219.83 247.49l-.14.14a.36.36 0 00-.08.38h.22zM219.83 217v-1l-31.7 31.7a.36.36 0 00-.08.38h.74zM219.83 239.51v-1l-9.15 9.15a.36.36 0 00-.09.38h.74zM219.83 244v-1l-4.65 4.65a.38.38 0 00-.08.38h.74zM219.83 180.9v-1l-67.76 67.76a.36.36 0 00-.09.38h.74zM219.83 185.41v-1l-63.26 63.26a.38.38 0 00-.08.38h.74zM219.83 189.92v-1l-58.75 58.75a.36.36 0 00-.08.38h.74zM219.83 212.46v-1l-36.2 36.2a.36.36 0 00-.09.38h.74zM219.83 176.39v-1l-72.27 72.27a.36.36 0 00-.09.38h.74zM219.83 194.43v-1l-54.24 54.24a.36.36 0 00-.08.38h.74zM219.83 208v-1l-40.71 40.71a.36.36 0 00-.09.38h.74zM219.83 198.94v-1l-49.73 49.69a.36.36 0 00-.08.38h.73zM219.83 203.44v-1l-45.22 45.22a.38.38 0 00-.09.38h.74z" />
        <g>
          <path fill="none" d="M143.19 248.01h76.64v76.64h-76.64z"/>
          <path d="M192.92 248.39a.36.36 0 00.08-.39h-.74l-49.07 49.08v1zM179.39 248.39a.36.36 0 00.08-.38h-.73l-35.55 35.55v1zM188.41 248.39a.36.36 0 00.08-.38h-.74l-44.56 44.57v1zM219.83 248.53v-.52h-.52l-76.12 76.13v.51h.51l76.13-76.12zM201.93 248.39a.36.36 0 00.07-.39h-.74l-58.07 58.1v1zM211 248.39a.36.36 0 000-.39h-.73l-67.11 67.11v1zM215.46 248.39a.36.36 0 00.08-.38h-.74l-71.61 71.62v1zM206.44 248.39a.38.38 0 00.09-.38h-.74l-62.6 62.6v1zM183.9 248.39a.36.36 0 00.1-.39h-.74l-40.05 40.06v1zM152.34 248.39a.36.36 0 00.08-.38h-.73l-8.5 8.5v1zM147.83 248.39a.36.36 0 00.08-.38h-.73l-4 4v1zM156.85 248.39a.36.36 0 00.08-.38h-.74l-13 13v1zM143.19 248.53l.13-.14a.36.36 0 00.09-.38h-.22zM165.87 248.39a.38.38 0 00.13-.39h-.74l-22 22v1zM170.37 248.39a.36.36 0 00.09-.38h-.74l-26.53 26.53v1zM174.88 248.39a.36.36 0 00.12-.39h-.74l-31 31v1zM161.36 248.39a.36.36 0 00.08-.38h-.74l-17.51 17.52v1zM197.42 248.39a.36.36 0 00.09-.38h-.74l-53.58 53.58v1zM219.83 302.63v-1l-22.68 22.68a.37.37 0 00-.08.38h.74zM219.83 311.65v-1l-13.66 13.66a.37.37 0 00-.09.38h.74zM219.83 307.14v-1l-18.17 18.17a.37.37 0 00-.08.38h.73zM219.83 298.12v-1l-27.19 27.18a.37.37 0 00-.08.38h.74zM219.83 324.14l-.14.13a.37.37 0 00-.08.38h.22zM219.83 293.61v-1l-31.7 31.69a.37.37 0 00-.08.38h.74zM219.83 316.16v-1l-9.15 9.15a.37.37 0 00-.09.38h.74zM219.83 320.66v-1l-4.65 4.64a.39.39 0 00-.08.38h.74zM219.83 257.55v-1l-67.76 67.76a.37.37 0 00-.09.38h.74zM219.83 262.05v-1l-63.26 63.25a.39.39 0 00-.08.38h.74zM219.83 266.56v-1l-58.75 58.74a.37.37 0 00-.08.38h.74zM219.83 289.1v-1l-36.2 36.2a.37.37 0 00-.09.38h.74zM219.83 253v-1l-72.27 72.27a.37.37 0 00-.09.38h.74zM219.83 271.07v-1l-54.24 54.23a.37.37 0 00-.08.38h.74zM219.83 284.6v-1l-40.71 40.71a.37.37 0 00-.09.38h.74zM219.83 275.58v-1l-49.73 49.69a.37.37 0 00-.08.38h.73zM219.83 280.09v-1l-45.22 45.22a.39.39 0 00-.09.38h.74z" />
        </g>
        <g>
          <path fill="none" d="M66.54 171.37h76.64v76.64H66.54z"/>
          <path d="M116.27 171.75a.37.37 0 00.09-.38h-.74l-49.08 49.07v1zM102.75 171.75a.36.36 0 00.08-.38h-.74l-35.55 35.55v1zM111.76 171.75a.37.37 0 00.09-.38h-.74l-44.57 44.56v1zM143.19 171.88v-.51h-.52l-76.13 76.12v.52h.52l76.13-76.13zM125.29 171.75a.36.36 0 00.08-.38h-.74l-58.09 58.09v1zM134.31 171.75a.36.36 0 00.08-.38h-.74l-67.11 67.11v1zM138.81 171.75a.37.37 0 00.09-.38h-.74L66.54 243v1zM129.8 171.75a.36.36 0 00.08-.38h-.74L66.54 234v1zM107.26 171.75a.38.38 0 00.08-.38h-.74l-40.06 40.06v1zM75.7 171.75a.36.36 0 00.08-.38H75l-8.5 8.5v1zM71.19 171.75a.36.36 0 00.08-.38h-.74l-4 4v1zM80.2 171.75a.37.37 0 00.09-.38h-.74l-13 13v1zM66.54 171.88l.14-.13a.36.36 0 00.08-.38h-.22zM89.22 171.75a.36.36 0 00.08-.38h-.73l-22 22v1zM93.73 171.75a.36.36 0 00.08-.38h-.73L66.54 197.9v1zM98.24 171.75a.36.36 0 00.08-.38h-.74l-31 31v1zM84.71 171.75a.37.37 0 00.09-.38h-.74l-17.52 17.51v1zM120.78 171.75a.36.36 0 00.08-.38h-.73L66.54 225v1zM143.19 226v-1l-22.68 22.68a.36.36 0 00-.09.38h.74zM143.19 235v-1l-13.67 13.66a.36.36 0 00-.08.38h.74zM143.19 230.49v-1L125 247.63a.36.36 0 00-.09.38h.74zM143.19 221.48v-1L116 247.63a.38.38 0 00-.09.38h.74zM143.19 247.49l-.14.14a.36.36 0 00-.08.38h.22zM143.19 217v-1l-31.7 31.7a.36.36 0 00-.08.38h.73zM143.19 239.51v-1l-9.19 9.12a.36.36 0 00-.08.38h.74zM143.19 244v-1l-4.65 4.65a.36.36 0 00-.08.38h.74zM143.19 180.9v-1l-67.77 67.73a.36.36 0 00-.08.38h.74zM143.19 185.41v-1l-63.26 63.22a.36.36 0 00-.08.38h.74zM143.19 189.92v-1l-58.75 58.71a.36.36 0 00-.08.38h.73zM143.19 212.46v-1L107 247.63a.36.36 0 00-.08.38h.74zM143.19 176.39v-1l-72.28 72.24a.36.36 0 00-.08.38h.74zM143.19 194.43v-1L89 247.63a.36.36 0 00-.09.38h.74zM143.19 208v-1l-40.72 40.71a.36.36 0 00-.08.38h.74zM143.19 198.94v-1l-49.73 49.69a.36.36 0 00-.09.38h.74zM143.19 203.44v-1L98 247.63a.38.38 0 00-.08.38h.74z" />
        </g>
        <g>
          <path fill="none" d="M66.54 248.01h76.64v76.64H66.54z"/>
          <path d="M116.27 248.39a.36.36 0 00.09-.38h-.74l-49.08 49.08v1zM102.75 248.39a.36.36 0 00.08-.38h-.74l-35.55 35.55v1zM111.76 248.39a.36.36 0 00.09-.38h-.74l-44.57 44.57v1zM143.19 248.53v-.52h-.52l-76.13 76.13v.51h.52l76.13-76.12zM125.29 248.39a.36.36 0 00.08-.38h-.74L66.54 306.1v1zM134.31 248.39a.36.36 0 00.08-.38h-.74l-67.11 67.11v1zM138.81 248.39a.36.36 0 00.09-.38h-.74l-71.62 71.62v1zM129.8 248.39a.36.36 0 00.08-.38h-.74l-62.6 62.6v1zM107.26 248.39a.38.38 0 00.08-.38h-.74l-40.06 40.06v1zM75.7 248.39a.36.36 0 00.08-.38H75l-8.5 8.5v1zM71.19 248.39a.36.36 0 00.08-.38h-.74l-4 4v1zM80.2 248.39a.36.36 0 00.09-.38h-.74l-13 13v1zM66.54 248.53l.14-.14a.36.36 0 00.08-.38h-.22zM89.22 248.39a.36.36 0 00.08-.38h-.73l-22 22v1zM93.73 248.39a.36.36 0 00.08-.38h-.73l-26.54 26.53v1zM98.24 248.39a.36.36 0 00.08-.38h-.74l-31 31v1zM84.71 248.39a.36.36 0 00.09-.38h-.74l-17.52 17.52v1zM120.78 248.39a.36.36 0 00.08-.38h-.73l-53.59 53.58v1zM143.19 302.63v-1l-22.68 22.68a.37.37 0 00-.09.38h.74zM143.19 311.65v-1l-13.67 13.66a.37.37 0 00-.08.38h.74zM143.19 307.14v-1L125 324.27a.37.37 0 00-.09.38h.74zM143.19 298.12v-1L116 324.27a.39.39 0 00-.09.38h.74zM143.19 324.14l-.14.13a.37.37 0 00-.08.38h.22zM143.19 293.61v-1l-31.7 31.69a.37.37 0 00-.08.38h.73zM143.19 316.16v-1l-9.19 9.11a.37.37 0 00-.08.38h.74zM143.19 320.66v-1l-4.65 4.64a.37.37 0 00-.08.38h.74zM143.19 257.55v-1l-67.77 67.72a.37.37 0 00-.08.38h.74zM143.19 262.05v-1l-63.26 63.22a.37.37 0 00-.08.38h.74zM143.19 266.56v-1l-58.75 58.71a.37.37 0 00-.08.38h.73zM143.19 289.1v-1L107 324.27a.37.37 0 00-.08.38h.74zM143.19 253v-1l-72.28 72.27a.37.37 0 00-.08.38h.74zM143.19 271.07v-1L89 324.27a.37.37 0 00-.09.38h.74zM143.19 284.6v-1l-40.72 40.71a.37.37 0 00-.08.38h.74zM143.19 275.58v-1l-49.73 49.69a.37.37 0 00-.09.38h.74zM143.19 280.09v-1L98 324.27a.39.39 0 00-.08.38h.74z" />
        </g>
      </g>
      <path d="M189.52 290.66H82.89l53.32-113.84zm-103.18-2.2h99.73L136.21 182z" />
    </g>
  </g>
</svg>
